Homework 8
…
`summarise()` has grouped output by 'date', 'seasons'. You can override using
the `.groups` argument.

Make sure that our new aggregated df looks ok.

df_daily

# A tibble: 365 × 9
# Groups:   date, seasons [365]
   date       seasons holiday    total_bikes total_rainfall total_snowfall
   <date>     <fct>   <fct>            <dbl>          <dbl>          <dbl>
 1 2017-12-01 Winter  No Holiday        9539            0              0  
 2 2017-12-02 Winter  No Holiday        8523            0              0  
 3 2017-12-03 Winter  No Holiday        7222            4              0  
 4 2017-12-04 Winter  No Holiday        8729            0.1            0  
 5 2017-12-05 Winter  No Holiday        8307            0              0  
 6 2017-12-06 Winter  No Holiday        6669            1.3            8.6
 7 2017-12-07 Winter  No Holiday        8549            0             10.4
 8 2017-12-08 Winter  No Holiday        8032            0              0  
 9 2017-12-09 Winter  No Holiday        7233            0              0  
10 2017-12-10 Winter  No Holiday        3453            4.1           32.5
# ℹ 355 more rows
# ℹ 3 more variables: mean_temperature <dbl>, mean_humidity <dbl>,
#   mean_wind_speed <dbl>
…
